{
  "status": 0,
  "result": {
    "createdById": "0050y00000EEpOwAAL",
    "createdByName": "Mario Di Genio",
    "createdDate": "1970-01-01T00:00:00.000Z",
    "fileName": "labels/CustomLabels.labels",
    "fullName": "CustomLabels",
    "id": "",
    "lastModifiedById": "0050y00000EEpOwAAL",
    "lastModifiedByName": "Mario Di Genio",
    "lastModifiedDate": "1970-01-01T00:00:00.000Z",
    "namespacePrefix": "",
    "type": "CustomLabels"
  }
}
